{
    "href": "https://api.spotify.com/v1/me/tracks?offset=0&limit=2",
    "items": [
        {
            "added_at": "2020-10-29T11:23:41Z",
            "track": {
                "album": {
                    "album_type": "single",
                    "artists": [
                        {
                            "external_urls": {
                                "spotify": "https://open.spotify.com/artist/1uUuCEXmWpKN2YLl5xSoT2"
                            },
                            "href": "https://api.spotify.com/v1/artists/1uUuCEXmWpKN2YLl5xSoT2",
                            "id": "1uUuCEXmWpKN2YLl5xSoT2",
                            "name": "$hirak",
                            "type": "artist",
                            "uri": "spotify:artist:1uUuCEXmWpKN2YLl5xSoT2"
                        },
                        {
                            "external_urls": {
                                "spotify": "https://open.spotify.com/artist/0IxgA9wO4Op3CSnPlhfwV1"
                            },
                            "href": "https://api.spotify.com/v1/artists/0IxgA9wO4Op3CSnPlhfwV1",
                            "id": "0IxgA9wO4Op3CSnPlhfwV1",
                            "name": "Kevin",
                            "type": "artist",
                            "uri": "spotify:artist:0IxgA9wO4Op3CSnPlhfwV1"
                        },
                        {
                            "external_urls": {
                                "spotify": "https://open.spotify.com/artist/6INEFmHKLhMIJAQzHUBAMd"
                            },
                            "href": "https://api.spotify.com/v1/artists/6INEFmHKLhMIJAQzHUBAMd",
                            "id": "6INEFmHKLhMIJAQzHUBAMd",
                            "name": "Lijpe",
                            "type": "artist",
                            "uri": "spotify:artist:6INEFmHKLhMIJAQzHUBAMd"
                        }
                    ],
                    "available_markets": [
                        "AD",
                        "AE",
                        "AL",
                        "AR",
                        "AT",
                        "AU",
                        "BA",
                        "BE",
                        "BG",
                        "BH",
                        "BO",
                        "BR",
                        "BY",
                        "CA",
                        "CH",
                        "CL",
                        "CO",
                        "CR",
                        "CY",
                        "CZ",
                        "DE",
                        "DK",
                        "DO",
                        "DZ",
                        "EC",
                        "EE",
                        "EG",
                        "ES",
                        "FI",
                        "FR",
                        "GB",
                        "GR",
                        "GT",
                        "HK",
                        "HN",
                        "HR",
                        "HU",
                        "ID",
                        "IE",
                        "IL",
                        "IN",
                        "IS",
                        "IT",
                        "JO",
                        "JP",
                        "KW",
                        "KZ",
                        "LB",
                        "LI",
                        "LT",
                        "LU",
                        "LV",
                        "MA",
                        "MC",
                        "MD",
                        "ME",
                        "MK",
                        "MT",
                        "MX",
                        "MY",
                        "NI",
                        "NL",
                        "NO",
                        "NZ",
                        "OM",
                        "PA",
                        "PE",
                        "PH",
                        "PL",
                        "PS",
                        "PT",
                        "PY",
                        "QA",
                        "RO",
                        "RS",
                        "RU",
                        "SA",
                        "SE",
                        "SG",
                        "SI",
                        "SK",
                        "SV",
                        "TH",
                        "TN",
                        "TR",
                        "TW",
                        "UA",
                        "US",
                        "UY",
                        "VN",
                        "XK",
                        "ZA"
                    ],
                    "external_urls": {
                        "spotify": "https://open.spotify.com/album/4nCJiTggljrPgtMiz6hkDh"
                    },
                    "href": "https://api.spotify.com/v1/albums/4nCJiTggljrPgtMiz6hkDh",
                    "id": "4nCJiTggljrPgtMiz6hkDh",
                    "images": [
                        {
                            "height": 640,
                            "url": "https://i.scdn.co/image/ab67616d0000b273031bf62576ee7c9593c29113",
                            "width": 640
                        },
                        {
                            "height": 300,
                            "url": "https://i.scdn.co/image/ab67616d00001e02031bf62576ee7c9593c29113",
                            "width": 300
                        },
                        {
                            "height": 64,
                            "url": "https://i.scdn.co/image/ab67616d00004851031bf62576ee7c9593c29113",
                            "width": 64
                        }
                    ],
                    "name": "Allemaal Zo Zijn",
                    "release_date": "2020-10-22",
                    "release_date_precision": "day",
                    "total_tracks": 1,
                    "type": "album",
                    "uri": "spotify:album:4nCJiTggljrPgtMiz6hkDh"
                },
                "artists": [
                    {
                        "external_urls": {
                            "spotify": "https://open.spotify.com/artist/1uUuCEXmWpKN2YLl5xSoT2"
                        },
                        "href": "https://api.spotify.com/v1/artists/1uUuCEXmWpKN2YLl5xSoT2",
                        "id": "1uUuCEXmWpKN2YLl5xSoT2",
                        "name": "$hirak",
                        "type": "artist",
                        "uri": "spotify:artist:1uUuCEXmWpKN2YLl5xSoT2"
                    },
                    {
                        "external_urls": {
                            "spotify": "https://open.spotify.com/artist/0IxgA9wO4Op3CSnPlhfwV1"
                        },
                        "href": "https://api.spotify.com/v1/artists/0IxgA9wO4Op3CSnPlhfwV1",
                        "id": "0IxgA9wO4Op3CSnPlhfwV1",
                        "name": "Kevin",
                        "type": "artist",
                        "uri": "spotify:artist:0IxgA9wO4Op3CSnPlhfwV1"
                    },
                    {
                        "external_urls": {
                            "spotify": "https://open.spotify.com/artist/6INEFmHKLhMIJAQzHUBAMd"
                        },
                        "href": "https://api.spotify.com/v1/artists/6INEFmHKLhMIJAQzHUBAMd",
                        "id": "6INEFmHKLhMIJAQzHUBAMd",
                        "name": "Lijpe",
                        "type": "artist",
                        "uri": "spotify:artist:6INEFmHKLhMIJAQzHUBAMd"
                    }
                ],
                "available_markets": [
                    "AD",
                    "AE",
                    "AL",
                    "AR",
                    "AT",
                    "AU",
                    "BA",
                    "BE",
                    "BG",
                    "BH",
                    "BO",
                    "BR",
                    "BY",
                    "CA",
                    "CH",
                    "CL",
                    "CO",
                    "CR",
                    "CY",
                    "CZ",
                    "DE",
                    "DK",
                    "DO",
                    "DZ",
                    "EC",
                    "EE",
                    "EG",
                    "ES",
                    "FI",
                    "FR",
                    "GB",
                    "GR",
                    "GT",
                    "HK",
                    "HN",
                    "HR",
                    "HU",
                    "ID",
                    "IE",
                    "IL",
                    "IN",
                    "IS",
                    "IT",
                    "JO",
                    "JP",
                    "KW",
                    "KZ",
                    "LB",
                    "LI",
                    "LT",
                    "LU",
                    "LV",
                    "MA",
                    "MC",
                    "MD",
                    "ME",
                    "MK",
                    "MT",
                    "MX",
                    "MY",
                    "NI",
                    "NL",
                    "NO",
                    "NZ",
                    "OM",
                    "PA",
                    "PE",
                    "PH",
                    "PL",
                    "PS",
                    "PT",
                    "PY",
                    "QA",
                    "RO",
                    "RS",
                    "RU",
                    "SA",
                    "SE",
                    "SG",
                    "SI",
                    "SK",
                    "SV",
                    "TH",
                    "TN",
                    "TR",
                    "TW",
                    "UA",
                    "US",
                    "UY",
                    "VN",
                    "XK",
                    "ZA"
                ],
                "disc_number": 1,
                "duration_ms": 197176,
                "explicit": false,
                "external_ids": {
                    "isrc": "NLG662000691"
                },
                "external_urls": {
                    "spotify": "https://open.spotify.com/track/5wcWjoT5g3PIZlwpIutLCt"
                },
                "href": "https://api.spotify.com/v1/tracks/5wcWjoT5g3PIZlwpIutLCt",
                "id": "5wcWjoT5g3PIZlwpIutLCt",
                "is_local": false,
                "name": "Allemaal Zo Zijn",
                "popularity": 61,
                "preview_url": "https://p.scdn.co/mp3-preview/59b82c12bda9df470a58a28718a1ac783ad0338e?cid=4e8dd866d911492381aa44f4770f25f2",
                "track_number": 1,
                "type": "track",
                "uri": "spotify:track:5wcWjoT5g3PIZlwpIutLCt"
            }
        },
        {
            "added_at": "2020-10-29T11:05:30Z",
            "track": {
                "album": {
                    "album_type": "album",
                    "artists": [
                        {
                            "external_urls": {
                                "spotify": "https://open.spotify.com/artist/0IxgA9wO4Op3CSnPlhfwV1"
                            },
                            "href": "https://api.spotify.com/v1/artists/0IxgA9wO4Op3CSnPlhfwV1",
                            "id": "0IxgA9wO4Op3CSnPlhfwV1",
                            "name": "Kevin",
                            "type": "artist",
                            "uri": "spotify:artist:0IxgA9wO4Op3CSnPlhfwV1"
                        }
                    ],
                    "available_markets": [
                        "AD",
                        "AE",
                        "AL",
                        "AR",
                        "AT",
                        "AU",
                        "BA",
                        "BE",
                        "BG",
                        "BH",
                        "BO",
                        "BR",
                        "BY",
                        "CA",
                        "CH",
                        "CL",
                        "CO",
                        "CR",
                        "CY",
                        "CZ",
                        "DE",
                        "DK",
                        "DO",
                        "DZ",
                        "EC",
                        "EE",
                        "EG",
                        "ES",
                        "FI",
                        "FR",
                        "GB",
                        "GR",
                        "GT",
                        "HK",
                        "HN",
                        "HR",
                        "HU",
                        "ID",
                        "IE",
                        "IL",
                        "IN",
                        "IS",
                        "IT",
                        "JO",
                        "JP",
                        "KW",
                        "KZ",
                        "LB",
                        "LI",
                        "LT",
                        "LU",
                        "LV",
                        "MA",
                        "MC",
                        "MD",
                        "ME",
                        "MK",
                        "MT",
                        "MX",
                        "MY",
                        "NI",
                        "NL",
                        "NO",
                        "NZ",
                        "OM",
                        "PA",
                        "PE",
                        "PH",
                        "PL",
                        "PS",
                        "PT",
                        "PY",
                        "QA",
                        "RO",
                        "RS",
                        "RU",
                        "SA",
                        "SE",
                        "SG",
                        "SI",
                        "SK",
                        "SV",
                        "TH",
                        "TN",
                        "TR",
                        "TW",
                        "UA",
                        "US",
                        "UY",
                        "VN",
                        "XK",
                        "ZA"
                    ],
                    "external_urls": {
                        "spotify": "https://open.spotify.com/album/2TtxKhlYqwpHyM8e50TdfI"
                    },
                    "href": "https://api.spotify.com/v1/albums/2TtxKhlYqwpHyM8e50TdfI",
                    "id": "2TtxKhlYqwpHyM8e50TdfI",
                    "images": [
                        {
                            "height": 640,
                            "url": "https://i.scdn.co/image/ab67616d0000b273c19c474620b9e9cbc33bbb57",
                            "width": 640
                        },
                        {
                            "height": 300,
                            "url": "https://i.scdn.co/image/ab67616d00001e02c19c474620b9e9cbc33bbb57",
                            "width": 300
                        },
                        {
                            "height": 64,
                            "url": "https://i.scdn.co/image/ab67616d00004851c19c474620b9e9cbc33bbb57",
                            "width": 64
                        }
                    ],
                    "name": "Animal Stories",
                    "release_date": "2020-09-03",
                    "release_date_precision": "day",
                    "total_tracks": 16,
                    "type": "album",
                    "uri": "spotify:album:2TtxKhlYqwpHyM8e50TdfI"
                },
                "artists": [
                    {
                        "external_urls": {
                            "spotify": "https://open.spotify.com/artist/0IxgA9wO4Op3CSnPlhfwV1"
                        },
                        "href": "https://api.spotify.com/v1/artists/0IxgA9wO4Op3CSnPlhfwV1",
                        "id": "0IxgA9wO4Op3CSnPlhfwV1",
                        "name": "Kevin",
                        "type": "artist",
                        "uri": "spotify:artist:0IxgA9wO4Op3CSnPlhfwV1"
                    },
                    {
                        "external_urls": {
                            "spotify": "https://open.spotify.com/artist/1EYdbYpGAuJy6uZo4sVMoM"
                        },
                        "href": "https://api.spotify.com/v1/artists/1EYdbYpGAuJy6uZo4sVMoM",
                        "id": "1EYdbYpGAuJy6uZo4sVMoM",
                        "name": "Idaly",
                        "type": "artist",
                        "uri": "spotify:artist:1EYdbYpGAuJy6uZo4sVMoM"
                    },
                    {
                        "external_urls": {
                            "spotify": "https://open.spotify.com/artist/1wFoE1RwBMWoWkXcFrCgsx"
                        },
                        "href": "https://api.spotify.com/v1/artists/1wFoE1RwBMWoWkXcFrCgsx",
                        "id": "1wFoE1RwBMWoWkXcFrCgsx",
                        "name": "Josylvio",
                        "type": "artist",
                        "uri": "spotify:artist:1wFoE1RwBMWoWkXcFrCgsx"
                    }
                ],
                "available_markets": [
                    "AD",
                    "AE",
                    "AL",
                    "AR",
                    "AT",
                    "AU",
                    "BA",
                    "BE",
                    "BG",
                    "BH",
                    "BO",
                    "BR",
                    "BY",
                    "CA",
                    "CH",
                    "CL",
                    "CO",
                    "CR",
                    "CY",
                    "CZ",
                    "DE",
                    "DK",
                    "DO",
                    "DZ",
                    "EC",
                    "EE",
                    "EG",
                    "ES",
                    "FI",
                    "FR",
                    "GB",
                    "GR",
                    "GT",
                    "HK",
                    "HN",
                    "HR",
                    "HU",
                    "ID",
                    "IE",
                    "IL",
                    "IN",
                    "IS",
                    "IT",
                    "JO",
                    "JP",
                    "KW",
                    "KZ",
                    "LB",
                    "LI",
                    "LT",
                    "LU",
                    "LV",
                    "MA",
                    "MC",
                    "MD",
                    "ME",
                    "MK",
                    "MT",
                    "MX",
                    "MY",
                    "NI",
                    "NL",
                    "NO",
                    "NZ",
                    "OM",
                    "PA",
                    "PE",
                    "PH",
                    "PL",
                    "PS",
                    "PT",
                    "PY",
                    "QA",
                    "RO",
                    "RS",
                    "RU",
                    "SA",
                    "SE",
                    "SG",
                    "SI",
                    "SK",
                    "SV",
                    "TH",
                    "TN",
                    "TR",
                    "TW",
                    "UA",
                    "US",
                    "UY",
                    "VN",
                    "XK",
                    "ZA"
                ],
                "disc_number": 1,
                "duration_ms": 172000,
                "explicit": true,
                "external_ids": {
                    "isrc": "NLG662000616"
                },
                "external_urls": {
                    "spotify": "https://open.spotify.com/track/5JV3hs61V6ksvDh3p1BQPU"
                },
                "href": "https://api.spotify.com/v1/tracks/5JV3hs61V6ksvDh3p1BQPU",
                "id": "5JV3hs61V6ksvDh3p1BQPU",
                "is_local": false,
                "name": "Ik Kom Je Halen",
                "popularity": 72,
                "preview_url": "https://p.scdn.co/mp3-preview/e6cb28fb4781caa74fdc1944984097f2a87d0d0b?cid=4e8dd866d911492381aa44f4770f25f2",
                "track_number": 2,
                "type": "track",
                "uri": "spotify:track:5JV3hs61V6ksvDh3p1BQPU"
            }
        }
    ],
    "limit": 2,
    "next": "https://api.spotify.com/v1/me/tracks?offset=2&limit=2",
    "offset": 0,
    "previous": null,
    "total": 690
}